<svg width="142" height="142" viewBox="0 0 142 142" fill="none" xmlns="http://www.w3.org/2000/svg">
<path d="M61.8309 49.77L91.2955 49.5034C91.7839 49.499 92.2506 49.3007 92.5928 48.9522C92.935 48.6038 93.1248 48.1336 93.1204 47.6452C93.116 47.1568 92.9177 46.6902 92.5692 46.3479C92.2208 46.0057 91.7506 45.8159 91.2622 45.8203L61.7976 46.087C61.3092 46.0914 60.8425 46.2897 60.5003 46.6381C60.1581 46.9866 59.9683 47.4568 59.9727 47.9452C59.9771 48.4336 60.1754 48.9002 60.5239 49.2425C60.8724 49.5847 61.3425 49.7745 61.8309 49.77Z" fill="#AB2187"/>
<path d="M61.9139 58.9781L91.3785 58.7114C91.8669 58.707 92.3336 58.5087 92.6758 58.1603C93.0181 57.8118 93.2078 57.3416 93.2034 56.8532C93.199 56.3648 93.0007 55.8982 92.6523 55.5559C92.3038 55.2137 91.8336 55.0239 91.3452 55.0283L61.8806 55.295C61.3922 55.2994 60.9255 55.4977 60.5833 55.8461C60.2411 56.1946 60.0513 56.6648 60.0557 57.1532C60.0601 57.6416 60.2584 58.1082 60.6069 58.4505C60.9554 58.7927 61.4255 58.9825 61.9139 58.9781Z" fill="#AB2187"/>
<path d="M78.5379 64.3525L61.9641 64.5025C61.4757 64.5069 61.009 64.7052 60.6668 65.0537C60.3246 65.4021 60.1348 65.8723 60.1392 66.3607C60.1436 66.8491 60.3419 67.3158 60.6904 67.658C61.0389 68.0002 61.509 68.19 61.9974 68.1856L78.5713 68.0356C79.0597 68.0312 79.5263 67.8329 79.8686 67.4844C80.2108 67.136 80.4006 66.6658 80.3961 66.1774C80.3917 65.689 80.1935 65.2223 79.845 64.8801C79.4965 64.5379 79.0263 64.3481 78.5379 64.3525Z" fill="#AB2187"/>
<path d="M73.0968 73.6102L62.0476 73.7101C61.5592 73.7146 61.0925 73.9128 60.7503 74.2613C60.4081 74.6098 60.2183 75.0799 60.2227 75.5683C60.2271 76.0567 60.4254 76.5234 60.7739 76.8656C61.1224 77.2079 61.5925 77.3976 62.0809 77.3932L73.1302 77.2932C73.6186 77.2888 74.0852 77.0905 74.4274 76.7421C74.7697 76.3936 74.9594 75.9234 74.955 75.435C74.9506 74.9466 74.7523 74.48 74.4039 74.1377C74.0554 73.7955 73.5852 73.6057 73.0968 73.6102Z" fill="#AB2187"/>
<path d="M96.5767 34.28L45.0136 34.7466C43.06 34.7643 41.1934 35.5573 39.8245 36.9512C38.4556 38.3451 37.6964 40.2258 37.7141 42.1794L38.0974 84.5348C38.1018 85.0232 38.3001 85.4898 38.6486 85.832C38.9971 86.1743 39.4672 86.364 39.9556 86.3596L49.1633 86.2763L49.3466 106.533C49.3449 106.843 49.4212 107.148 49.5685 107.42C49.7158 107.692 49.9294 107.923 50.1895 108.091C50.4382 108.235 50.7147 108.325 51.0008 108.354C51.2868 108.383 51.5758 108.351 51.8485 108.26L60.3809 104.776L68.9748 108.105C69.4614 108.256 69.9872 108.219 70.4472 108L76.9547 104.626L83.5222 107.881C83.9861 108.092 84.5124 108.12 84.9962 107.96L93.5285 104.476L102.123 107.805L102.767 107.799C103.124 107.804 103.475 107.705 103.777 107.514C104.022 107.35 104.223 107.13 104.365 106.873C104.507 106.615 104.585 106.327 104.593 106.033L104.009 41.5794C103.992 39.6258 103.199 37.7592 101.805 36.3903C100.411 35.0214 98.5303 34.2623 96.5767 34.28ZM41.7638 82.6599L41.3972 42.1461C41.3884 41.1692 41.7679 40.2289 42.4524 39.532C43.1368 38.835 44.0701 38.4385 45.0469 38.4296C46.0238 38.4208 46.9641 38.8004 47.661 39.4848C48.358 40.1693 48.7545 41.1026 48.7633 42.0794L49.13 82.5932L41.7638 82.6599ZM100.885 103.304L94.1389 100.695L92.8498 100.707L84.4096 104.19L77.7501 100.935C77.4941 100.801 77.2087 100.731 76.9195 100.734C76.6302 100.737 76.3462 100.811 76.0927 100.95L69.4931 104.325L60.9912 100.995L59.7022 101.007L53.0047 103.738L52.4464 42.0461C52.4404 40.7488 52.0785 39.478 51.4002 38.3722L96.61 37.963C97.5868 37.9542 98.5271 38.3337 99.2241 39.0182C99.9211 39.7027 100.318 40.636 100.326 41.6128L100.885 103.304Z" fill="#AB2187"/>
<path d="M73.1798 82.818L62.1306 82.918C61.6422 82.9224 61.1755 83.1207 60.8333 83.4692C60.4911 83.8177 60.3013 84.2878 60.3057 84.7762C60.3101 85.2646 60.5084 85.7313 60.8569 86.0735C61.2054 86.4157 61.6755 86.6055 62.1639 86.6011L73.2132 86.5011C73.7016 86.4967 74.1682 86.2984 74.5104 85.95C74.8527 85.6015 75.0425 85.1313 75.038 84.6429C75.0336 84.1545 74.8354 83.6879 74.4869 83.3456C74.1384 83.0034 73.6682 82.8136 73.1798 82.818Z" fill="#AB2187"/>
<circle cx="71.2951" cy="71.1929" r="65" transform="rotate(-0.518486 71.2951 71.1929)" stroke="#AB2187" stroke-width="10"/>
</svg>
